…
```r
paratest = sample_n(knew.molten2, 5000)

#check for each group
knew.molten2 %>%
  filter(UNITS == 'density') %>%
  filter(BRIGHTNESS == 'total') %>%
  group_by(System, CHANNEL) %>%
  do(tidy(shapiro.test(.$value)))
```

```
## # A tibble: 96 x 5
## # Groups:   System, CHANNEL [96]
##    System      CHANNEL statistic  p.value method                     
##    <fct>       <fct>       <dbl>    <dbl> <fct>                      
##  1 AUD CTX     ArcIHC      0.935 3.64e- 6 Shapiro-Wilk normality test
##  2 AUD CTX     DAPI        0.961 4.24e- 4 Shapiro-Wilk normality test
##  3 AUD CTX     GFAP        0.881 2.59e- 9 Shapiro-Wilk normality test
##  4 AUD CTX     H2BGFP      0.741 1.40e-14 Shapiro-Wilk normality test
##  5 AUD CTX     NormOL      0.800 1.10e-12 Shapiro-Wilk normality test
##  6 AUD CTX     OL          0.752 3.01e-14 Shapiro-Wilk normality test
##  7 CORTICO-AMY ArcIHC      0.990 4.26e- 1 Shapiro-Wilk normality test
##  8 CORTICO-AMY DAPI        0.967 1.91e- 3 Shapiro-Wilk normality test
##  9 CORTICO-AMY GFAP        0.748 4.19e-14 Shapiro-Wilk normality test
## 10 CORTICO-AMY H2BGFP      0.554 1.03e-18 Shapiro-Wilk normality test
## # ... with 86 more rows
```
…
